--------------------JWT--------------------
- pay load: {"userId":String,"admin":Boolean}
- after decode saved at req.jwt_decoded

--------------------Middlewares------------
- jwt_authenticate: req.jwt_decoded
- get_post_author: req.author = {userId: ''}